<mxfile host="app.diagrams.net" modified="2023-09-24T15:55:56.168Z" agent="Mozilla/5.0 (Windows NT 10.0; Win64; x64) AppleWebKit/537.36 (KHTML, like Gecko) Chrome/116.0.0.0 Safari/537.36" etag="Zzk70nlpcunO-3WW6HRB" version="21.8.1" type="gitlab">
  <diagram name="Page-1" id="NK71P3ohEVRvkOt6Lg8i">
    <mxGraphModel dx="1434" dy="782" grid="1" gridSize="10" guides="1" tooltips="1" connect="1" arrows="1" fold="1" page="1" pageScale="1" pageWidth="1169" pageHeight="1654" math="0" shadow="0">
      <root>
        <mxCell id="0" />
        <mxCell id="1" parent="0" />
        <mxCell id="MSXCdZsXpGbszIqCaohZ-28" value="" style="rounded=0;whiteSpace=wrap;html=1;" parent="1" vertex="1">
          <mxGeometry x="240" y="590" width="260" height="60" as="geometry" />
        </mxCell>
        <mxCell id="MSXCdZsXpGbszIqCaohZ-1" value="Actor" style="shape=umlActor;verticalLabelPosition=bottom;verticalAlign=top;html=1;outlineConnect=0;" parent="1" vertex="1">
          <mxGeometry x="220" y="180" width="30" height="60" as="geometry" />
        </mxCell>
        <mxCell id="MSXCdZsXpGbszIqCaohZ-7" value="" style="endArrow=none;html=1;rounded=0;" parent="1" edge="1">
          <mxGeometry width="50" height="50" relative="1" as="geometry">
            <mxPoint x="240" y="670" as="sourcePoint" />
            <mxPoint x="240" y="260" as="targetPoint" />
          </mxGeometry>
        </mxCell>
        <mxCell id="MSXCdZsXpGbszIqCaohZ-10" value="" style="group" parent="1" vertex="1" connectable="0">
          <mxGeometry x="460" y="180" width="80" height="90" as="geometry" />
        </mxCell>
        <mxCell id="MSXCdZsXpGbszIqCaohZ-5" value="" style="group" parent="MSXCdZsXpGbszIqCaohZ-10" vertex="1" connectable="0">
          <mxGeometry width="80" height="60" as="geometry" />
        </mxCell>
        <mxCell id="MSXCdZsXpGbszIqCaohZ-2" value="" style="ellipse;whiteSpace=wrap;html=1;aspect=fixed;" parent="MSXCdZsXpGbszIqCaohZ-5" vertex="1">
          <mxGeometry x="10" width="60" height="60" as="geometry" />
        </mxCell>
        <mxCell id="MSXCdZsXpGbszIqCaohZ-3" value="" style="endArrow=none;html=1;rounded=0;" parent="MSXCdZsXpGbszIqCaohZ-5" edge="1">
          <mxGeometry width="50" height="50" relative="1" as="geometry">
            <mxPoint y="60" as="sourcePoint" />
            <mxPoint x="80" y="60" as="targetPoint" />
          </mxGeometry>
        </mxCell>
        <mxCell id="MSXCdZsXpGbszIqCaohZ-9" value="User MS" style="text;html=1;strokeColor=none;fillColor=none;align=center;verticalAlign=middle;whiteSpace=wrap;rounded=0;" parent="MSXCdZsXpGbszIqCaohZ-10" vertex="1">
          <mxGeometry x="10" y="60" width="60" height="30" as="geometry" />
        </mxCell>
        <mxCell id="MSXCdZsXpGbszIqCaohZ-11" value="" style="group" parent="1" vertex="1" connectable="0">
          <mxGeometry x="760" y="170" width="60" height="110" as="geometry" />
        </mxCell>
        <mxCell id="MSXCdZsXpGbszIqCaohZ-6" value="" style="shape=cylinder3;whiteSpace=wrap;html=1;boundedLbl=1;backgroundOutline=1;size=15;" parent="MSXCdZsXpGbszIqCaohZ-11" vertex="1">
          <mxGeometry width="60" height="80" as="geometry" />
        </mxCell>
        <mxCell id="MSXCdZsXpGbszIqCaohZ-8" value="User db" style="text;html=1;strokeColor=none;fillColor=none;align=center;verticalAlign=middle;whiteSpace=wrap;rounded=0;" parent="MSXCdZsXpGbszIqCaohZ-11" vertex="1">
          <mxGeometry y="80" width="60" height="30" as="geometry" />
        </mxCell>
        <mxCell id="MSXCdZsXpGbszIqCaohZ-12" value="" style="endArrow=none;html=1;rounded=0;" parent="1" edge="1">
          <mxGeometry width="50" height="50" relative="1" as="geometry">
            <mxPoint x="500" y="670" as="sourcePoint" />
            <mxPoint x="499.58" y="270" as="targetPoint" />
          </mxGeometry>
        </mxCell>
        <mxCell id="MSXCdZsXpGbszIqCaohZ-13" value="" style="endArrow=none;html=1;rounded=0;" parent="1" edge="1">
          <mxGeometry width="50" height="50" relative="1" as="geometry">
            <mxPoint x="790" y="660" as="sourcePoint" />
            <mxPoint x="789.5799999999999" y="280" as="targetPoint" />
          </mxGeometry>
        </mxCell>
        <mxCell id="MSXCdZsXpGbszIqCaohZ-14" value="" style="endArrow=classic;html=1;rounded=0;" parent="1" edge="1">
          <mxGeometry width="50" height="50" relative="1" as="geometry">
            <mxPoint x="240" y="284" as="sourcePoint" />
            <mxPoint x="500" y="284" as="targetPoint" />
          </mxGeometry>
        </mxCell>
        <mxCell id="MSXCdZsXpGbszIqCaohZ-15" value="Request" style="text;html=1;strokeColor=none;fillColor=none;align=center;verticalAlign=middle;whiteSpace=wrap;rounded=0;" parent="1" vertex="1">
          <mxGeometry x="340" y="290" width="60" height="30" as="geometry" />
        </mxCell>
        <mxCell id="MSXCdZsXpGbszIqCaohZ-16" value="" style="endArrow=classic;html=1;rounded=0;edgeStyle=orthogonalEdgeStyle;" parent="1" edge="1">
          <mxGeometry width="50" height="50" relative="1" as="geometry">
            <mxPoint x="500" y="320" as="sourcePoint" />
            <mxPoint x="500" y="370" as="targetPoint" />
            <Array as="points">
              <mxPoint x="601" y="321" />
              <mxPoint x="601" y="370" />
            </Array>
          </mxGeometry>
        </mxCell>
        <mxCell id="MSXCdZsXpGbszIqCaohZ-17" value="" style="endArrow=classic;html=1;rounded=0;edgeStyle=orthogonalEdgeStyle;" parent="1" edge="1">
          <mxGeometry width="50" height="50" relative="1" as="geometry">
            <mxPoint x="500" y="400" as="sourcePoint" />
            <mxPoint x="500" y="450" as="targetPoint" />
            <Array as="points">
              <mxPoint x="601" y="401" />
              <mxPoint x="601" y="450" />
            </Array>
          </mxGeometry>
        </mxCell>
        <mxCell id="MSXCdZsXpGbszIqCaohZ-19" value="validate personal data" style="rounded=0;whiteSpace=wrap;html=1;" parent="1" vertex="1">
          <mxGeometry x="550" y="340" width="130" height="20" as="geometry" />
        </mxCell>
        <mxCell id="MSXCdZsXpGbszIqCaohZ-20" value="Validate phone number" style="rounded=0;whiteSpace=wrap;html=1;" parent="1" vertex="1">
          <mxGeometry x="550" y="420" width="130" height="20" as="geometry" />
        </mxCell>
        <mxCell id="MSXCdZsXpGbszIqCaohZ-23" value="" style="endArrow=classic;html=1;rounded=0;edgeStyle=orthogonalEdgeStyle;" parent="1" edge="1">
          <mxGeometry width="50" height="50" relative="1" as="geometry">
            <mxPoint x="503" y="468" as="sourcePoint" />
            <mxPoint x="503" y="518" as="targetPoint" />
            <Array as="points">
              <mxPoint x="604" y="469" />
              <mxPoint x="604" y="518" />
            </Array>
          </mxGeometry>
        </mxCell>
        <mxCell id="MSXCdZsXpGbszIqCaohZ-24" value="Validate photo" style="rounded=0;whiteSpace=wrap;html=1;" parent="1" vertex="1">
          <mxGeometry x="553" y="488" width="130" height="20" as="geometry" />
        </mxCell>
        <mxCell id="MSXCdZsXpGbszIqCaohZ-26" value="" style="endArrow=classic;html=1;rounded=0;" parent="1" edge="1">
          <mxGeometry width="50" height="50" relative="1" as="geometry">
            <mxPoint x="500" y="551" as="sourcePoint" />
            <mxPoint x="790" y="551" as="targetPoint" />
          </mxGeometry>
        </mxCell>
        <mxCell id="MSXCdZsXpGbszIqCaohZ-27" value="Send requested data" style="text;html=1;strokeColor=none;fillColor=none;align=center;verticalAlign=middle;whiteSpace=wrap;rounded=0;" parent="1" vertex="1">
          <mxGeometry x="585" y="530" width="130" height="30" as="geometry" />
        </mxCell>
        <mxCell id="MSXCdZsXpGbszIqCaohZ-29" value="User successfully registered" style="text;html=1;strokeColor=none;fillColor=none;align=center;verticalAlign=middle;whiteSpace=wrap;rounded=0;" parent="1" vertex="1">
          <mxGeometry x="260" y="590" width="220" height="30" as="geometry" />
        </mxCell>
        <mxCell id="MSXCdZsXpGbszIqCaohZ-30" value="User Failed to register" style="text;html=1;strokeColor=none;fillColor=none;align=center;verticalAlign=middle;whiteSpace=wrap;rounded=0;" parent="1" vertex="1">
          <mxGeometry x="260" y="620" width="220" height="30" as="geometry" />
        </mxCell>
        <mxCell id="MSXCdZsXpGbszIqCaohZ-31" value="" style="endArrow=none;html=1;rounded=0;entryX=1;entryY=0.5;entryDx=0;entryDy=0;exitX=0;exitY=0.5;exitDx=0;exitDy=0;" parent="1" source="MSXCdZsXpGbszIqCaohZ-28" target="MSXCdZsXpGbszIqCaohZ-28" edge="1">
          <mxGeometry width="50" height="50" relative="1" as="geometry">
            <mxPoint x="80" y="610" as="sourcePoint" />
            <mxPoint x="130" y="560" as="targetPoint" />
          </mxGeometry>
        </mxCell>
        <mxCell id="MSXCdZsXpGbszIqCaohZ-32" value="Alt" style="text;html=1;strokeColor=none;fillColor=none;align=center;verticalAlign=middle;whiteSpace=wrap;rounded=0;" parent="1" vertex="1">
          <mxGeometry x="230" y="620" width="60" height="30" as="geometry" />
        </mxCell>
        <mxCell id="MSXCdZsXpGbszIqCaohZ-33" value="" style="endArrow=classic;html=1;rounded=0;" parent="1" edge="1">
          <mxGeometry width="50" height="50" relative="1" as="geometry">
            <mxPoint x="500" y="660" as="sourcePoint" />
            <mxPoint x="240" y="660" as="targetPoint" />
          </mxGeometry>
        </mxCell>
        <mxCell id="MSXCdZsXpGbszIqCaohZ-34" value="" style="endArrow=classic;html=1;rounded=0;" parent="1" edge="1">
          <mxGeometry width="50" height="50" relative="1" as="geometry">
            <mxPoint x="500" y="540" as="sourcePoint" />
            <mxPoint x="240" y="540" as="targetPoint" />
          </mxGeometry>
        </mxCell>
        <mxCell id="MSXCdZsXpGbszIqCaohZ-35" value="Invalid/ missing mandatory data&amp;nbsp;" style="text;html=1;strokeColor=none;fillColor=none;align=center;verticalAlign=middle;whiteSpace=wrap;rounded=0;" parent="1" vertex="1">
          <mxGeometry x="260" y="508" width="220" height="30" as="geometry" />
        </mxCell>
        <mxCell id="MSXCdZsXpGbszIqCaohZ-37" value="&lt;font style=&quot;font-size: 18px;&quot;&gt;POST /user/v1/register&lt;/font&gt;" style="text;html=1;strokeColor=none;fillColor=none;align=center;verticalAlign=middle;whiteSpace=wrap;rounded=0;" parent="1" vertex="1">
          <mxGeometry x="220" y="130" width="220" height="30" as="geometry" />
        </mxCell>
        <mxCell id="MSXCdZsXpGbszIqCaohZ-38" value="" style="rounded=0;whiteSpace=wrap;html=1;" parent="1" vertex="1">
          <mxGeometry x="960" y="105" width="160" height="650" as="geometry" />
        </mxCell>
        <mxCell id="MSXCdZsXpGbszIqCaohZ-39" value="" style="group" parent="1" vertex="1" connectable="0">
          <mxGeometry x="1010" y="175" width="80" height="90" as="geometry" />
        </mxCell>
        <mxCell id="MSXCdZsXpGbszIqCaohZ-40" value="" style="group" parent="MSXCdZsXpGbszIqCaohZ-39" vertex="1" connectable="0">
          <mxGeometry width="80" height="60" as="geometry" />
        </mxCell>
        <mxCell id="MSXCdZsXpGbszIqCaohZ-41" value="" style="ellipse;whiteSpace=wrap;html=1;aspect=fixed;" parent="MSXCdZsXpGbszIqCaohZ-40" vertex="1">
          <mxGeometry x="10" width="60" height="60" as="geometry" />
        </mxCell>
        <mxCell id="MSXCdZsXpGbszIqCaohZ-42" value="" style="endArrow=none;html=1;rounded=0;" parent="MSXCdZsXpGbszIqCaohZ-40" edge="1">
          <mxGeometry width="50" height="50" relative="1" as="geometry">
            <mxPoint y="60" as="sourcePoint" />
            <mxPoint x="80" y="60" as="targetPoint" />
          </mxGeometry>
        </mxCell>
        <mxCell id="MSXCdZsXpGbszIqCaohZ-43" value="CIAM" style="text;html=1;strokeColor=none;fillColor=none;align=center;verticalAlign=middle;whiteSpace=wrap;rounded=0;" parent="MSXCdZsXpGbszIqCaohZ-39" vertex="1">
          <mxGeometry x="10" y="60" width="60" height="30" as="geometry" />
        </mxCell>
        <mxCell id="MSXCdZsXpGbszIqCaohZ-44" value="" style="html=1;points=[[0,0,0,0,5],[0,1,0,0,-5],[1,0,0,0,5],[1,1,0,0,-5]];perimeter=orthogonalPerimeter;outlineConnect=0;targetShapes=umlLifeline;portConstraint=eastwest;newEdgeStyle={&quot;curved&quot;:0,&quot;rounded&quot;:0};" parent="1" vertex="1">
          <mxGeometry x="1045" y="275" width="10" height="360" as="geometry" />
        </mxCell>
        <mxCell id="MSXCdZsXpGbszIqCaohZ-45" value="" style="endArrow=classic;html=1;rounded=0;" parent="1" target="MSXCdZsXpGbszIqCaohZ-44" edge="1">
          <mxGeometry width="50" height="50" relative="1" as="geometry">
            <mxPoint x="500" y="570" as="sourcePoint" />
            <mxPoint x="790" y="570" as="targetPoint" />
          </mxGeometry>
        </mxCell>
        <mxCell id="MSXCdZsXpGbszIqCaohZ-46" value="Send data to CIAM" style="text;html=1;strokeColor=none;fillColor=none;align=center;verticalAlign=middle;whiteSpace=wrap;rounded=0;" parent="1" vertex="1">
          <mxGeometry x="820" y="550" width="130" height="30" as="geometry" />
        </mxCell>
        <mxCell id="MSXCdZsXpGbszIqCaohZ-47" value="" style="endArrow=classic;html=1;rounded=0;" parent="1" edge="1">
          <mxGeometry width="50" height="50" relative="1" as="geometry">
            <mxPoint x="1045" y="598" as="sourcePoint" />
            <mxPoint x="500" y="598" as="targetPoint" />
          </mxGeometry>
        </mxCell>
        <mxCell id="MSXCdZsXpGbszIqCaohZ-48" value="CIAM Response" style="text;html=1;strokeColor=none;fillColor=none;align=center;verticalAlign=middle;whiteSpace=wrap;rounded=0;" parent="1" vertex="1">
          <mxGeometry x="590" y="573" width="130" height="30" as="geometry" />
        </mxCell>
      </root>
    </mxGraphModel>
  </diagram>
</mxfile>
